prefecture,pop_2017
Aichi,7525
Akita,996
Aomori,1278
Chiba,6246
Ehime,1364
Fukui,779
Fukuoka,5107
Fukushima,1882
Gifu,2008
Gunma,1960
Hiroshima,2829
Hokkaido,5320
Hyogo,5503
Ibaraki,2892
Ishikawa,1147
Iwate,1255
Kagawa,967
Kagoshima,1626
Kanagawa,9159
Kochi,714
Kumamoto,1765
Kyoto,2599
Mie,1800
Miyagi,2323
Miyazaki,1089
Nagano,2076
Nagasaki,1354
Nara,1348
Niigata,2267
Oita,1152
Okayama,1907
Okinawa,1443
Osaka,8823
Saga,824
Saitama,7310
Shiga,1413
Shimane,685
Shizuoka,3675
Tochigi,1957
Tokushima,743
Tokyo,13724
Tottori,565
Toyama,1056
Wakayama ,945
Yamagata,1102
Yamaguchi,1383
Yamanashi,823
